<?xml version="1.0" encoding="UTF-8" standalone="no"?>
<!-- Created with Inkscape (http://www.inkscape.org/) -->

<svg
   xmlns:dc="http://purl.org/dc/elements/1.1/"
   xmlns:cc="http://creativecommons.org/ns#"
   xmlns:rdf="http://www.w3.org/1999/02/22-rdf-syntax-ns#"
   xmlns:svg="http://www.w3.org/2000/svg"
   xmlns="http://www.w3.org/2000/svg"
   xmlns:sodipodi="http://sodipodi.sourceforge.net/DTD/sodipodi-0.dtd"
   xmlns:inkscape="http://www.inkscape.org/namespaces/inkscape"
   width="109.77962mm"
   height="109.77962mm"
   viewBox="0 0 109.77962 109.77962"
   version="1.1"
   id="svg8"
   inkscape:version="0.92.4 5da689c313, 2019-01-14"
   sodipodi:docname="404.svg">
  <defs
     id="defs2" />
  <sodipodi:namedview
     id="base"
     pagecolor="#ffffff"
     bordercolor="#666666"
     borderopacity="1.0"
     inkscape:pageopacity="0.0"
     inkscape:pageshadow="2"
     inkscape:zoom="1"
     inkscape:cx="369.3023"
     inkscape:cy="225.46335"
     inkscape:document-units="mm"
     inkscape:current-layer="layer1"
     showgrid="false"
     showborder="true"
     inkscape:snap-global="false"
     inkscape:window-width="1920"
     inkscape:window-height="1043"
     inkscape:window-x="0"
     inkscape:window-y="18"
     inkscape:window-maximized="0"
     fit-margin-top="0"
     fit-margin-left="0"
     fit-margin-right="0"
     fit-margin-bottom="0" />
  <metadata
     id="metadata5">
    <rdf:RDF>
      <cc:Work
         rdf:about="">
        <dc:format>image/svg+xml</dc:format>
        <dc:type
           rdf:resource="http://purl.org/dc/dcmitype/StillImage" />
        <dc:title></dc:title>
      </cc:Work>
    </rdf:RDF>
  </metadata>
  <g
     inkscape:label="Layer 1"
     inkscape:groupmode="layer"
     id="layer1"
     transform="translate(-297.62272,343.39249)">
    <path
       style="font-style:normal;font-variant:normal;font-weight:bold;font-stretch:normal;font-size:29.40090752px;line-height:1.25;font-family:sans-serif;-inkscape-font-specification:'sans-serif, Bold';font-variant-ligatures:normal;font-variant-caps:normal;font-variant-numeric:normal;font-feature-settings:normal;text-align:start;letter-spacing:0px;word-spacing:0px;writing-mode:lr-tb;text-anchor:start;fill:#000000;fill-opacity:1;stroke:none;stroke-width:2.7780385"
       d="M 301.81055 135.22852 C 291.1397 135.22852 282.91063 138.88068 277.12305 146.1875 C 271.33547 153.45815 268.44141 163.82122 268.44141 177.27734 C 268.44141 190.6973 271.33547 201.06037 277.12305 208.36719 C 282.91063 215.63784 291.1397 219.27344 301.81055 219.27344 C 312.44523 219.27344 320.65578 215.63784 326.44336 208.36719 C 332.23094 201.06037 335.125 190.6973 335.125 177.27734 C 335.125 163.82122 332.23094 153.45815 326.44336 146.1875 C 320.65578 138.88068 312.44523 135.22852 301.81055 135.22852 z M 223.24414 136.69336 L 190.79688 185.03711 L 190.79688 202.94141 L 226.7168 202.94141 L 226.7168 217.70117 L 246.4668 217.70117 L 246.4668 202.94141 L 258.02344 202.94141 L 258.02344 187.80469 L 246.4668 187.80469 L 246.4668 136.69336 L 223.24414 136.69336 z M 377.88086 136.69336 L 345.43359 185.03711 L 345.43359 202.94141 L 381.35352 202.94141 L 381.35352 217.70117 L 383.70703 217.70117 A 133.66179 133.66179 0 0 0 401.10352 184.37891 L 401.10352 136.69336 L 377.88086 136.69336 z M 301.81055 149.49805 C 306.29592 149.49805 309.47841 151.57846 311.35938 155.73828 C 313.27651 159.86193 314.23438 166.98697 314.23438 177.11523 C 314.23438 187.35202 313.27651 194.56768 311.35938 198.76367 C 309.44224 202.95967 306.25975 205.05859 301.81055 205.05859 C 297.32517 205.05859 294.12417 202.95967 292.20703 198.76367 C 290.2899 194.56768 289.33008 187.35202 289.33008 177.11523 C 289.33008 166.98697 290.2899 159.86193 292.20703 155.73828 C 294.12417 151.57846 297.32517 149.49805 301.81055 149.49805 z M 226.7168 153.89258 L 226.7168 187.80469 L 203.81836 187.80469 L 226.7168 153.89258 z M 381.35352 153.89258 L 381.35352 187.80469 L 358.45508 187.80469 L 381.35352 153.89258 z "
       transform="matrix(0.26458333,0,0,0.26458333,297.62272,-343.39249)"
       id="text4626" />
    <circle
       style="opacity:1;fill:#44ffff;fill-opacity:0.26851855;stroke:#808080;stroke-width:3.16984487;stroke-linecap:round;stroke-linejoin:round;stroke-miterlimit:4;stroke-dasharray:none;stroke-opacity:1"
       id="path4518"
       cx="45.261799"
       cy="-478.65158"
       r="35.364681"
       transform="rotate(45)" />
    <path
       style="opacity:1;fill:#808080;fill-opacity:0.98500001;stroke:none;stroke-width:1.7917583;stroke-linecap:round;stroke-linejoin:round;stroke-miterlimit:4;stroke-dasharray:none"
       d="m 341.11163,-285.32819 -10.30597,10.30597 8.2264,8.22639 10.2939,-10.2939 a 33.680574,20.681461 45 0 1 -4.33537,-3.89103 33.680574,20.681461 45 0 1 -3.87896,-4.34743 z"
       id="rect4520"
       inkscape:connector-curvature="0" />
    <rect
       rx="1.7197917"
       style="opacity:1;fill:#999999;fill-opacity:0.98500001;stroke:#808080;stroke-width:1;stroke-linecap:round;stroke-linejoin:round;stroke-miterlimit:4;stroke-dasharray:none"
       id="rect4522"
       width="19.314583"
       height="47.360416"
       x="35.604511"
       y="-432.35403"
       ry="1.7197917"
       transform="rotate(45)" />
    <rect
       y="-430.7327"
       x="37.22002"
       height="44.117741"
       width="4.177341"
       id="rect4528"
       style="opacity:1;fill:#cccccc;fill-opacity:0.98500001;stroke:none;stroke-width:1.06415832;stroke-linecap:round;stroke-linejoin:round;stroke-miterlimit:4;stroke-dasharray:none"
       ry="2.0886705"
       rx="2.0886705"
       transform="rotate(45)" />
    <rect
       ry="2.0886705"
       style="opacity:1;fill:#cccccc;fill-opacity:0.98500001;stroke:none;stroke-width:1.06415832;stroke-linecap:round;stroke-linejoin:round;stroke-miterlimit:4;stroke-dasharray:none"
       id="rect4530"
       width="4.177341"
       height="44.117741"
       x="43.173145"
       y="-430.7327"
       rx="2.0886705"
       transform="rotate(45)" />
    <rect
       y="-430.7327"
       x="49.12627"
       height="44.117741"
       width="4.177341"
       id="rect4532"
       style="opacity:1;fill:#cccccc;fill-opacity:0.98500001;stroke:none;stroke-width:1.06415832;stroke-linecap:round;stroke-linejoin:round;stroke-miterlimit:4;stroke-dasharray:none"
       ry="2.0886705"
       rx="2.0886705"
       transform="rotate(45)" />
    <path
       style="opacity:1;fill:#ffffff;fill-opacity:0.65277782;stroke:none;stroke-width:11.98051643;stroke-linecap:round;stroke-linejoin:round;stroke-miterlimit:4;stroke-dasharray:none;stroke-opacity:1"
       d="m 1400.2676,2094.2969 c -2.8014,-0.024 -5.6042,0.049 -8.4043,0.2187 -74.8429,2.3853 -130.3714,88.5441 -104.9551,157.1485 a 133.66179,133.66179 0 0 1 37.752,-112.586 133.66179,133.66179 0 0 1 117.5976,-36.9765 c -13.3701,-5.0373 -27.6464,-7.6839 -41.9902,-7.8047 z"
       transform="matrix(0.26458333,0,0,0.26458333,0,-892)"
       id="circle4585"
       inkscape:connector-curvature="0" />
  </g>
</svg>
